%YAML 1.1
%TAG !u! tag:unity3d.com,2011:
--- !u!114 &11400000
MonoBehaviour:
  m_ObjectHideFlags: 0
  m_CorrespondingSourceObject: {fileID: 0}
  m_PrefabInternal: {fileID: 0}
  m_GameObject: {fileID: 0}
  m_Enabled: 1
  m_EditorHideFlags: 0
  m_Script: {fileID: 11500000, guid: 8e6292b2c06870d4495f009f912b9600, type: 3}
  m_Name: PostProcessing
  m_EditorClassIdentifier: 
  settings:
  - {fileID: 114893723533288230}
  - {fileID: 114885941822861292}
  - {fileID: 114544342344650116}
  - {fileID: 114337762461359540}
  - {fileID: 114200990639707696}
--- !u!114 &114200990639707696
MonoBehaviour:
  m_ObjectHideFlags: 3
  m_CorrespondingSourceObject: {fileID: 0}
  m_PrefabInternal: {fileID: 0}
  m_GameObject: {fileID: 0}
  m_Enabled: 1
  m_EditorHideFlags: 0
  m_Script: {fileID: 11500000, guid: d65e486e4de6e5448a8fbb43dc8756a0, type: 3}
  m_Name: Grain
  m_EditorClassIdentifier: 
  active: 0
  enabled:
    overrideState: 1
    value: 1
  colored:
    overrideState: 1
    value: 0
  intensity:
    overrideState: 1
    value: 1
  size:
    overrideState: 1
    value: 0.3
  lumContrib:
    overrideState: 0
    value: 0.8
--- !u!114 &114337762461359540
MonoBehaviour:
  m_ObjectHideFlags: 3
  m_CorrespondingSourceObject: {fileID: 0}
  m_PrefabInternal: {fileID: 0}
  m_GameObject: {fileID: 0}
  m_Enabled: 1
  m_EditorHideFlags: 0
  m_Script: {fileID: 11500000, guid: 48a79b01ea5641d4aa6daa2e23605641, type: 3}
  m_Name: Bloom
  m_EditorClassIdentifier: 
  active: 0
  enabled:
    overrideState: 1
    value: 1
  intensity:
    overrideState: 1
    value: 0.5
  threshold:
    overrideState: 1
    value: 2
  softKnee:
    overrideState: 1
    value: 0.5
  diffusion:
    overrideState: 1
    value: 8
  anamorphicRatio:
    overrideState: 0
    value: 0
  color:
    overrideState: 0
    value: {r: 1, g: 1, b: 1, a: 1}
  fastMode:
    overrideState: 0
    value: 0
  dirtTexture:
    overrideState: 0
    value: {fileID: 0}
    defaultState: 1
  dirtIntensity:
    overrideState: 0
    value: 0
--- !u!114 &114544342344650116
MonoBehaviour:
  m_ObjectHideFlags: 3
  m_CorrespondingSourceObject: {fileID: 0}
  m_PrefabInternal: {fileID: 0}
  m_GameObject: {fileID: 0}
  m_Enabled: 1
  m_EditorHideFlags: 0
  m_Script: {fileID: 11500000, guid: 6050e2d5de785ce4d931e4dbdbf2d755, type: 3}
  m_Name: ChromaticAberration
  m_EditorClassIdentifier: 
  active: 0
  enabled:
    overrideState: 1
    value: 1
  spectralLut:
    overrideState: 0
    value: {fileID: 0}
    defaultState: 1
  intensity:
    overrideState: 1
    value: 0.2
  fastMode:
    overrideState: 0
    value: 1
--- !u!114 &114885941822861292
MonoBehaviour:
  m_ObjectHideFlags: 3
  m_CorrespondingSourceObject: {fileID: 0}
  m_PrefabInternal: {fileID: 0}
  m_GameObject: {fileID: 0}
  m_Enabled: 1
  m_EditorHideFlags: 0
  m_Script: {fileID: 11500000, guid: b3f6f3f7c722b4544b97e3c75840aa33, type: 3}
  m_Name: AutoExposure
  m_EditorClassIdentifier: 
  active: 0
  enabled:
    overrideState: 1
    value: 1
  filtering:
    overrideState: 1
    value: {x: 50, y: 95}
  minLuminance:
    overrideState: 1
    value: -5
  maxLuminance:
    overrideState: 1
    value: 2
  keyValue:
    overrideState: 1
    value: 1
  eyeAdaptation:
    overrideState: 1
    value: 0
  speedUp:
    overrideState: 1
    value: 4
  speedDown:
    overrideState: 1
    value: 1
--- !u!114 &114893723533288230
MonoBehaviour:
  m_ObjectHideFlags: 3
  m_CorrespondingSourceObject: {fileID: 0}
  m_PrefabInternal: {fileID: 0}
  m_GameObject: {fileID: 0}
  m_Enabled: 1
  m_EditorHideFlags: 0
  m_Script: {fileID: 11500000, guid: adb84e30e02715445aeb9959894e3b4d, type: 3}
  m_Name: ColorGrading
  m_EditorClassIdentifier: 
  active: 0
  enabled:
    overrideState: 1
    value: 1
  gradingMode:
    overrideState: 1
    value: 1
  externalLut:
    overrideState: 0
    value: {fileID: 0}
    defaultState: 1
  tonemapper:
    overrideState: 1
    value: 2
  toneCurveToeStrength:
    overrideState: 0
    value: 0
  toneCurveToeLength:
    overrideState: 0
    value: 0.5
  toneCurveShoulderStrength:
    overrideState: 0
    value: 0
  toneCurveShoulderLength:
    overrideState: 0
    value: 0.5
  toneCurveShoulderAngle:
    overrideState: 0
    value: 0
  toneCurveGamma:
    overrideState: 0
    value: 1
  ldrLut:
    overrideState: 0
    value: {fileID: 0}
    defaultState: 4
  ldrLutContribution:
    overrideState: 0
    value: 1
  temperature:
    overrideState: 0
    value: 0
  tint:
    overrideState: 0
    value: 0
  colorFilter:
    overrideState: 0
    value: {r: 1, g: 1, b: 1, a: 1}
  hueShift:
    overrideState: 0
    value: 0
  saturation:
    overrideState: 0
    value: 0
  brightness:
    overrideState: 0
    value: 0
  postExposure:
    overrideState: 0
    value: 1
  contrast:
    overrideState: 0
    value: 0
  mixerRedOutRedIn:
    overrideState: 0
    value: 100
  mixerRedOutGreenIn:
    overrideState: 0
    value: 0
  mixerRedOutBlueIn:
    overrideState: 0
    value: 0
  mixerGreenOutRedIn:
    overrideState: 0
    value: 0
  mixerGreenOutGreenIn:
    overrideState: 0
    value: 100
  mixerGreenOutBlueIn:
    overrideState: 0
    value: 0
  mixerBlueOutRedIn:
    overrideState: 0
    value: 0
  mixerBlueOutGreenIn:
    overrideState: 0
    value: 0
  mixerBlueOutBlueIn:
    overrideState: 0
    value: 100
  lift:
    overrideState: 0
    value: {x: 1, y: 1, z: 1, w: 0}
  gamma:
    overrideState: 0
    value: {x: 1, y: 1, z: 1, w: 0}
  gain:
    overrideState: 0
    value: {x: 1, y: 1, z: 1, w: 0}
  masterCurve:
    overrideState: 0
    value:
      curve:
        serializedVersion: 2
        m_Curve:
        - serializedVersion: 3
          time: 0
          value: 0
          inSlope: 1
          outSlope: 1
          tangentMode: 0
          weightedMode: 0
          inWeight: 0
          outWeight: 0
        - serializedVersion: 3
          time: 1
          value: 1
          inSlope: 1
          outSlope: 1
          tangentMode: 0
          weightedMode: 0
          inWeight: 0
          outWeight: 0
        m_PreInfinity: 2
        m_PostInfinity: 2
        m_RotationOrder: 4
      m_Loop: 0
      m_ZeroValue: 0
      m_Range: 1
  redCurve:
    overrideState: 0
    value:
      curve:
        serializedVersion: 2
        m_Curve:
        - serializedVersion: 3
          time: 0
          value: 0
          inSlope: 1
          outSlope: 1
          tangentMode: 0
          weightedMode: 0
          inWeight: 0
          outWeight: 0
        - serializedVersion: 3
          time: 1
          value: 1
          inSlope: 1
          outSlope: 1
          tangentMode: 0
          weightedMode: 0
          inWeight: 0
          outWeight: 0
        m_PreInfinity: 2
        m_PostInfinity: 2
        m_RotationOrder: 4
      m_Loop: 0
      m_ZeroValue: 0
      m_Range: 1
  greenCurve:
    overrideState: 0
    value:
      curve:
        serializedVersion: 2
        m_Curve:
        - serializedVersion: 3
          time: 0
          value: 0
          inSlope: 1
          outSlope: 1
          tangentMode: 0
          weightedMode: 0
          inWeight: 0
          outWeight: 0
        - serializedVersion: 3
          time: 1
          value: 1
          inSlope: 1
          outSlope: 1
          tangentMode: 0
          weightedMode: 0
          inWeight: 0
          outWeight: 0
        m_PreInfinity: 2
        m_PostInfinity: 2
        m_RotationOrder: 4
      m_Loop: 0
      m_ZeroValue: 0
      m_Range: 1
  blueCurve:
    overrideState: 0
    value:
      curve:
        serializedVersion: 2
        m_Curve:
        - serializedVersion: 3
          time: 0
          value: 0
          inSlope: 1
          outSlope: 1
          tangentMode: 0
          weightedMode: 0
          inWeight: 0
          outWeight: 0
        - serializedVersion: 3
          time: 1
          value: 1
          inSlope: 1
          outSlope: 1
          tangentMode: 0
          weightedMode: 0
          inWeight: 0
          outWeight: 0
        m_PreInfinity: 2
        m_PostInfinity: 2
        m_RotationOrder: 4
      m_Loop: 0
      m_ZeroValue: 0
      m_Range: 1
  hueVsHueCurve:
    overrideState: 0
    value:
      curve:
        serializedVersion: 2
        m_Curve: []
        m_PreInfinity: 2
        m_PostInfinity: 2
        m_RotationOrder: 4
      m_Loop: 1
      m_ZeroValue: 0.5
      m_Range: 1
  hueVsSatCurve:
    overrideState: 0
    value:
      curve:
        serializedVersion: 2
        m_Curve: []
        m_PreInfinity: 2
        m_PostInfinity: 2
        m_RotationOrder: 4
      m_Loop: 1
      m_ZeroValue: 0.5
      m_Range: 1
  satVsSatCurve:
    overrideState: 0
    value:
      curve:
        serializedVersion: 2
        m_Curve: []
        m_PreInfinity: 2
        m_PostInfinity: 2
        m_RotationOrder: 4
      m_Loop: 0
      m_ZeroValue: 0.5
      m_Range: 1
  lumVsSatCurve:
    overrideState: 0
    value:
      curve:
        serializedVersion: 2
        m_Curve: []
        m_PreInfinity: 2
        m_PostInfinity: 2
        m_RotationOrder: 4
      m_Loop: 0
      m_ZeroValue: 0.5
      m_Range: 1
